%YAML 1.1
%TAG !u! tag:unity3d.com,2011:
--- !u!1001 &3042765651778566006
PrefabInstance:
  m_ObjectHideFlags: 0
  serializedVersion: 2
  m_Modification:
    m_TransformParent: {fileID: 0}
    m_Modifications:
    - target: {fileID: 1000012087368230, guid: a22c0c7e17126fa4f89534dc98bcac8f, type: 3}
      propertyPath: m_Name
      value: Barrel_v1_LD1
      objectReference: {fileID: 0}
    - target: {fileID: 4000011716061034, guid: a22c0c7e17126fa4f89534dc98bcac8f, type: 3}
      propertyPath: m_RootOrder
      value: 0
      objectReference: {fileID: 0}
    - target: {fileID: 4000011716061034, guid: a22c0c7e17126fa4f89534dc98bcac8f, type: 3}
      propertyPath: m_LocalPosition.x
      value: 105.31914
      objectReference: {fileID: 0}
    - target: {fileID: 4000011716061034, guid: a22c0c7e17126fa4f89534dc98bcac8f, type: 3}
      propertyPath: m_LocalPosition.y
      value: 55.41519
      objectReference: {fileID: 0}
    - target: {fileID: 4000011716061034, guid: a22c0c7e17126fa4f89534dc98bcac8f, type: 3}
      propertyPath: m_LocalPosition.z
      value: 92.80513
      objectReference: {fileID: 0}
    - target: {fileID: 4000011716061034, guid: a22c0c7e17126fa4f89534dc98bcac8f, type: 3}
      propertyPath: m_LocalRotation.w
      value: 1
      objectReference: {fileID: 0}
    - target: {fileID: 4000011716061034, guid: a22c0c7e17126fa4f89534dc98bcac8f, type: 3}
      propertyPath: m_LocalRotation.x
      value: 0
      objectReference: {fileID: 0}
    - target: {fileID: 4000011716061034, guid: a22c0c7e17126fa4f89534dc98bcac8f, type: 3}
      propertyPath: m_LocalRotation.y
      value: 0
      objectReference: {fileID: 0}
    - target: {fileID: 4000011716061034, guid: a22c0c7e17126fa4f89534dc98bcac8f, type: 3}
      propertyPath: m_LocalRotation.z
      value: 0
      objectReference: {fileID: 0}
    - target: {fileID: 4000011716061034, guid: a22c0c7e17126fa4f89534dc98bcac8f, type: 3}
      propertyPath: m_LocalEulerAnglesHint.x
      value: 0
      objectReference: {fileID: 0}
    - target: {fileID: 4000011716061034, guid: a22c0c7e17126fa4f89534dc98bcac8f, type: 3}
      propertyPath: m_LocalEulerAnglesHint.y
      value: 0
      objectReference: {fileID: 0}
    - target: {fileID: 4000011716061034, guid: a22c0c7e17126fa4f89534dc98bcac8f, type: 3}
      propertyPath: m_LocalEulerAnglesHint.z
      value: 0
      objectReference: {fileID: 0}
    m_RemovedComponents: []
  m_SourcePrefab: {fileID: 100100000, guid: a22c0c7e17126fa4f89534dc98bcac8f, type: 3}
