%YAML 1.1
%TAG !u! tag:unity3d.com,2011:
--- !u!1001 &798334594979204211
PrefabInstance:
  m_ObjectHideFlags: 0
  serializedVersion: 2
  m_Modification:
    m_TransformParent: {fileID: 3813245236611319495}
    m_Modifications:
    - target: {fileID: 2040681436200956038, guid: 2f1fe4616baab9c498af5c93aea431d4, type: 3}
      propertyPath: m_Name
      value: Wooden box (2)
      objectReference: {fileID: 0}
    - target: {fileID: 2043592481201983480, guid: 2f1fe4616baab9c498af5c93aea431d4, type: 3}
      propertyPath: m_RootOrder
      value: 1
      objectReference: {fileID: 0}
    - target: {fileID: 2043592481201983480, guid: 2f1fe4616baab9c498af5c93aea431d4, type: 3}
      propertyPath: m_LocalScale.y
      value: 1
      objectReference: {fileID: 0}
    - target: {fileID: 2043592481201983480, guid: 2f1fe4616baab9c498af5c93aea431d4, type: 3}
      propertyPath: m_LocalPosition.x
      value: 1.416397
      objectReference: {fileID: 0}
    - target: {fileID: 2043592481201983480, guid: 2f1fe4616baab9c498af5c93aea431d4, type: 3}
      propertyPath: m_LocalPosition.y
      value: 0
      objectReference: {fileID: 0}
    - target: {fileID: 2043592481201983480, guid: 2f1fe4616baab9c498af5c93aea431d4, type: 3}
      propertyPath: m_LocalPosition.z
      value: 0.47234723
      objectReference: {fileID: 0}
    - target: {fileID: 2043592481201983480, guid: 2f1fe4616baab9c498af5c93aea431d4, type: 3}
      propertyPath: m_LocalRotation.w
      value: 0.99813485
      objectReference: {fileID: 0}
    - target: {fileID: 2043592481201983480, guid: 2f1fe4616baab9c498af5c93aea431d4, type: 3}
      propertyPath: m_LocalRotation.x
      value: -0
      objectReference: {fileID: 0}
    - target: {fileID: 2043592481201983480, guid: 2f1fe4616baab9c498af5c93aea431d4, type: 3}
      propertyPath: m_LocalRotation.y
      value: 0.061048605
      objectReference: {fileID: 0}
    - target: {fileID: 2043592481201983480, guid: 2f1fe4616baab9c498af5c93aea431d4, type: 3}
      propertyPath: m_LocalRotation.z
      value: -0
      objectReference: {fileID: 0}
    - target: {fileID: 2043592481201983480, guid: 2f1fe4616baab9c498af5c93aea431d4, type: 3}
      propertyPath: m_LocalEulerAnglesHint.x
      value: 0
      objectReference: {fileID: 0}
    - target: {fileID: 2043592481201983480, guid: 2f1fe4616baab9c498af5c93aea431d4, type: 3}
      propertyPath: m_LocalEulerAnglesHint.y
      value: 3
      objectReference: {fileID: 0}
    - target: {fileID: 2043592481201983480, guid: 2f1fe4616baab9c498af5c93aea431d4, type: 3}
      propertyPath: m_LocalEulerAnglesHint.z
      value: 0
      objectReference: {fileID: 0}
    m_RemovedComponents: []
  m_SourcePrefab: {fileID: 100100000, guid: 2f1fe4616baab9c498af5c93aea431d4, type: 3}
--- !u!1001 &2933834427385448767
PrefabInstance:
  m_ObjectHideFlags: 0
  serializedVersion: 2
  m_Modification:
    m_TransformParent: {fileID: 0}
    m_Modifications:
    - target: {fileID: 2040681436200956038, guid: 2f1fe4616baab9c498af5c93aea431d4, type: 3}
      propertyPath: m_Name
      value: Wooden box_3
      objectReference: {fileID: 0}
    - target: {fileID: 2043592481201983480, guid: 2f1fe4616baab9c498af5c93aea431d4, type: 3}
      propertyPath: m_RootOrder
      value: 0
      objectReference: {fileID: 0}
    - target: {fileID: 2043592481201983480, guid: 2f1fe4616baab9c498af5c93aea431d4, type: 3}
      propertyPath: m_LocalPosition.x
      value: 3.2200012
      objectReference: {fileID: 0}
    - target: {fileID: 2043592481201983480, guid: 2f1fe4616baab9c498af5c93aea431d4, type: 3}
      propertyPath: m_LocalPosition.y
      value: 40.77
      objectReference: {fileID: 0}
    - target: {fileID: 2043592481201983480, guid: 2f1fe4616baab9c498af5c93aea431d4, type: 3}
      propertyPath: m_LocalPosition.z
      value: -3.3099976
      objectReference: {fileID: 0}
    - target: {fileID: 2043592481201983480, guid: 2f1fe4616baab9c498af5c93aea431d4, type: 3}
      propertyPath: m_LocalRotation.w
      value: 0.99939084
      objectReference: {fileID: 0}
    - target: {fileID: 2043592481201983480, guid: 2f1fe4616baab9c498af5c93aea431d4, type: 3}
      propertyPath: m_LocalRotation.x
      value: 0
      objectReference: {fileID: 0}
    - target: {fileID: 2043592481201983480, guid: 2f1fe4616baab9c498af5c93aea431d4, type: 3}
      propertyPath: m_LocalRotation.y
      value: -0.034899585
      objectReference: {fileID: 0}
    - target: {fileID: 2043592481201983480, guid: 2f1fe4616baab9c498af5c93aea431d4, type: 3}
      propertyPath: m_LocalRotation.z
      value: 0
      objectReference: {fileID: 0}
    - target: {fileID: 2043592481201983480, guid: 2f1fe4616baab9c498af5c93aea431d4, type: 3}
      propertyPath: m_LocalEulerAnglesHint.x
      value: 0
      objectReference: {fileID: 0}
    - target: {fileID: 2043592481201983480, guid: 2f1fe4616baab9c498af5c93aea431d4, type: 3}
      propertyPath: m_LocalEulerAnglesHint.y
      value: -4
      objectReference: {fileID: 0}
    - target: {fileID: 2043592481201983480, guid: 2f1fe4616baab9c498af5c93aea431d4, type: 3}
      propertyPath: m_LocalEulerAnglesHint.z
      value: 0
      objectReference: {fileID: 0}
    m_RemovedComponents: []
  m_SourcePrefab: {fileID: 100100000, guid: 2f1fe4616baab9c498af5c93aea431d4, type: 3}
--- !u!4 &3813245236611319495 stripped
Transform:
  m_CorrespondingSourceObject: {fileID: 2043592481201983480, guid: 2f1fe4616baab9c498af5c93aea431d4, type: 3}
  m_PrefabInstance: {fileID: 2933834427385448767}
  m_PrefabAsset: {fileID: 0}
--- !u!1001 &8502972804228730851
PrefabInstance:
  m_ObjectHideFlags: 0
  serializedVersion: 2
  m_Modification:
    m_TransformParent: {fileID: 3813245236611319495}
    m_Modifications:
    - target: {fileID: 2040681436200956038, guid: 2f1fe4616baab9c498af5c93aea431d4, type: 3}
      propertyPath: m_Name
      value: Wooden box (1)
      objectReference: {fileID: 0}
    - target: {fileID: 2043592481201983480, guid: 2f1fe4616baab9c498af5c93aea431d4, type: 3}
      propertyPath: m_RootOrder
      value: 0
      objectReference: {fileID: 0}
    - target: {fileID: 2043592481201983480, guid: 2f1fe4616baab9c498af5c93aea431d4, type: 3}
      propertyPath: m_LocalScale.y
      value: 1
      objectReference: {fileID: 0}
    - target: {fileID: 2043592481201983480, guid: 2f1fe4616baab9c498af5c93aea431d4, type: 3}
      propertyPath: m_LocalPosition.x
      value: 0.08091743
      objectReference: {fileID: 0}
    - target: {fileID: 2043592481201983480, guid: 2f1fe4616baab9c498af5c93aea431d4, type: 3}
      propertyPath: m_LocalPosition.y
      value: 0
      objectReference: {fileID: 0}
    - target: {fileID: 2043592481201983480, guid: 2f1fe4616baab9c498af5c93aea431d4, type: 3}
      propertyPath: m_LocalPosition.z
      value: 1.1571703
      objectReference: {fileID: 0}
    - target: {fileID: 2043592481201983480, guid: 2f1fe4616baab9c498af5c93aea431d4, type: 3}
      propertyPath: m_LocalRotation.w
      value: 0.9996574
      objectReference: {fileID: 0}
    - target: {fileID: 2043592481201983480, guid: 2f1fe4616baab9c498af5c93aea431d4, type: 3}
      propertyPath: m_LocalRotation.x
      value: -0
      objectReference: {fileID: 0}
    - target: {fileID: 2043592481201983480, guid: 2f1fe4616baab9c498af5c93aea431d4, type: 3}
      propertyPath: m_LocalRotation.y
      value: -0.026176922
      objectReference: {fileID: 0}
    - target: {fileID: 2043592481201983480, guid: 2f1fe4616baab9c498af5c93aea431d4, type: 3}
      propertyPath: m_LocalRotation.z
      value: -0
      objectReference: {fileID: 0}
    - target: {fileID: 2043592481201983480, guid: 2f1fe4616baab9c498af5c93aea431d4, type: 3}
      propertyPath: m_LocalEulerAnglesHint.x
      value: 0
      objectReference: {fileID: 0}
    - target: {fileID: 2043592481201983480, guid: 2f1fe4616baab9c498af5c93aea431d4, type: 3}
      propertyPath: m_LocalEulerAnglesHint.y
      value: -7
      objectReference: {fileID: 0}
    - target: {fileID: 2043592481201983480, guid: 2f1fe4616baab9c498af5c93aea431d4, type: 3}
      propertyPath: m_LocalEulerAnglesHint.z
      value: 0
      objectReference: {fileID: 0}
    m_RemovedComponents: []
  m_SourcePrefab: {fileID: 100100000, guid: 2f1fe4616baab9c498af5c93aea431d4, type: 3}
